ic_contest/2006/dump.vcd
$date
	Sun Jun 30 14:24:28 2024
$end
$version
	ModelSim Version 2020.1
$end
$timescale
	10ps
$end

$scope module test $end
$var parameter 72 ! INPUT_DATA $end
$var parameter 80 " EXPECT_DATA $end
$var parameter 32 # period $end
$var reg 1 $ clk $end
$var reg 1 % reset $end
$var reg 1 & nt $end
$var reg 3 ' xi [2:0] $end
$var reg 3 ( yi [2:0] $end
$var wire 1 ) xo [2] $end
$var wire 1 * xo [1] $end
$var wire 1 + xo [0] $end
$var wire 1 , yo [2] $end
$var wire 1 - yo [1] $end
$var wire 1 . yo [0] $end
$var wire 1 / po $end
$var wire 1 0 busy $end
$var integer 32 1 i $end
$var integer 32 2 j $end
$var integer 32 3 k $end
$var integer 32 4 l $end
$var integer 32 5 out_f $end
$var integer 32 6 err $end
$var integer 32 7 pattern_num $end
$var integer 32 8 total_num $end
$var integer 32 9 total_cycle_num $end
$var integer 32 : a $end
$var integer 32 ; b $end
$var integer 32 < c $end
$var integer 32 = d $end
$var reg 6 > data_tmp_expect [5:0] $end
$var reg 6 ? data_tmp_i1 [5:0] $end
$var reg 6 @ data_tmp_i2 [5:0] $end
$var reg 6 A data_tmp_i3 [5:0] $end

$scope module top $end
$var parameter 32 B STATE_INPUT $end
$var parameter 32 C STATE_OUTPUT $end
$var wire 1 D clk $end
$var wire 1 E reset $end
$var wire 1 F nt $end
$var wire 1 G xi [2] $end
$var wire 1 H xi [1] $end
$var wire 1 I xi [0] $end
$var wire 1 J yi [2] $end
$var wire 1 K yi [1] $end
$var wire 1 L yi [0] $end
$var reg 1 M busy $end
$var reg 1 N po $end
$var reg 3 O xo [2:0] $end
$var reg 3 P yo [2:0] $end
$var reg 1 Q state $end
$var reg 1 R next_state $end
$var reg 1 S nt_store $end
$var reg 2 T ready_store_index [1:0] $end
$var reg 3 U ready_output_x [2:0] $end
$var reg 3 V ready_output_y [2:0] $end
$var wire 1 W x1 [5] $end
$var wire 1 X x1 [4] $end
$var wire 1 Y x1 [3] $end
$var wire 1 Z x1 [2] $end
$var wire 1 [ x1 [1] $end
$var wire 1 \ x1 [0] $end
$var wire 1 ] x2 [5] $end
$var wire 1 ^ x2 [4] $end
$var wire 1 _ x2 [3] $end
$var wire 1 ` x2 [2] $end
$var wire 1 a x2 [1] $end
$var wire 1 b x2 [0] $end
$var wire 1 c x3 [5] $end
$var wire 1 d x3 [4] $end
$var wire 1 e x3 [3] $end
$var wire 1 f x3 [2] $end
$var wire 1 g x3 [1] $end
$var wire 1 h x3 [0] $end
$var wire 1 i y1 [5] $end
$var wire 1 j y1 [4] $end
$var wire 1 k y1 [3] $end
$var wire 1 l y1 [2] $end
$var wire 1 m y1 [1] $end
$var wire 1 n y1 [0] $end
$var wire 1 o y2 [5] $end
$var wire 1 p y2 [4] $end
$var wire 1 q y2 [3] $end
$var wire 1 r y2 [2] $end
$var wire 1 s y2 [1] $end
$var wire 1 t y2 [0] $end
$var wire 1 u y3 [5] $end
$var wire 1 v y3 [4] $end
$var wire 1 w y3 [3] $end
$var wire 1 x y3 [2] $end
$var wire 1 y y3 [1] $end
$var wire 1 z y3 [0] $end
$var wire 1 { x [5] $end
$var wire 1 | x [4] $end
$var wire 1 } x [3] $end
$var wire 1 ~ x [2] $end
$var wire 1 !! x [1] $end
$var wire 1 "! x [0] $end
$var wire 1 #! y [5] $end
$var wire 1 $! y [4] $end
$var wire 1 %! y [3] $end
$var wire 1 &! y [2] $end
$var wire 1 '! y [1] $end
$var wire 1 (! y [0] $end
$var wire 1 )! ready_output_x_initial [2] $end
$var wire 1 *! ready_output_x_initial [1] $end
$var wire 1 +! ready_output_x_initial [0] $end
$var wire 1 ,! ready_output_x_end [2] $end
$var wire 1 -! ready_output_x_end [1] $end
$var wire 1 .! ready_output_x_end [0] $end
$var reg 1 /! inside $end
$upscope $end
$upscope $end
$enddefinitions $end
#0
$dumpvars
1$
0%
0&
bz '
bz (
bx >
bx ?
bx @
bx A
xM
xN
bx O
bx P
xQ
xR
xS
bx T
bx U
bx V
0/!
b1111101000 #
b0 B
b1 C
b11010010110111001110000011101010111010000101110011001000110000101110100 !
b1100101011110000111000001100101011000110111010000101110011001000110000101110100 "
b0 1
b0 2
b0 3
b0 4
b10 5
b0 6
b1 7
b0 8
bx 9
bx :
bx ;
bx <
bx =
x+
x*
x)
x.
x-
x,
x/
x0
x\
x[
xZ
0Y
0X
0W
xb
xa
x`
0_
0^
0]
xh
xg
xf
0e
0d
0c
xn
xm
xl
0k
0j
0i
xt
xs
xr
0q
0p
0o
xz
xy
xx
0w
0v
0u
x"!
x!!
x~
0}
0|
0{
x(!
x'!
x&!
0%!
0$!
0#!
x+!
x*!
x)!
x.!
x-!
x,!
zL
zK
zJ
zI
zH
zG
0F
0E
1D
$end
#5000
0$
0D
1%
1E
0Q
0S
b0 T
0M
0N
00
0/
0R
#10000
1$
1D
b0 9
#14999
0%
b11 3
0E
#15000
0$
0D
1&
1F
#18000
b1001 ?
b1 '
b1 (
1L
0K
0J
1I
0H
0G
#20000
1$
1D
b1 9
b1 T
1S
1n
0m
0l
1\
0[
0Z
#22000
bz '
bz (
zL
zK
zJ
zI
zH
zG
#25000
0$
0D
0&
0F
#28000
b100001 @
b100 '
b1 (
1L
0K
0J
0I
0H
1G
#30000
1$
1D
b10 9
b10 T
1M
b1 V
10
1(!
0'!
0&!
1t
0s
0r
0b
0a
1`
1+!
0*!
0)!
0.!
0-!
1,!
1R
#32000
bz '
bz (
zL
zK
zJ
zI
zH
zG
#35000
0$
0D
#38000
b1111 A
b1 '
b111 (
1L
1K
1J
1I
0H
0G
#40000
1$
1D
b11 9
1Q
b11 T
b1 U
1"!
0!!
0~
1z
1y
1x
1h
0g
0f
1/!
#42000
bz '
bz (
b11 1
zL
zK
zJ
zI
zH
zG
#45000
0$
0D
b0 3
#50000
1$
1D
b100 9
b1 O
b1 P
1N
b10 U
1.
0-
0,
1+
0*
0)
1/
0"!
1!!
#55000
0$
0D
#60000
1$
1D
b1001 >
b1 4
b101 9
b10 O
b11 U
0+
1*
1"!
#65000
0$
0D
#70000
1$
1D
b10001 >
b10 4
b110 9
b11 O
b100 U
1+
0"!
0!!
1~
#75000
0$
0D
#80000
1$
1D
b11001 >
b11 4
b111 9
b100 O
b10 V
b1 U
0+
0*
1)
1"!
0~
0(!
1'!
#85000
0$
0D
#90000
1$
1D
b100001 >
b100 4
b1000 9
b1 O
b10 P
b10 U
0.
1-
1+
0)
0"!
1!!
#95000
0$
0D
#100000
1$
1D
b1010 >
b101 4
b1001 9
b10 O
b11 U
0+
1*
1"!
#105000
0$
0D
#110000
1$
1D
b10010 >
b110 4
b1010 9
b11 O
b100 U
1+
0"!
0!!
1~
0/!
#115000
0$
0D
#120000
1$
1D
b11010 >
b111 4
b1011 9
b100 O
0N
b11 V
b1 U
0+
0*
1)
0/
1"!
0~
1(!
1/!
#125000
0$
0D
#130000
1$
1D
b1100 9
b1 O
b11 P
1N
b10 U
1.
1+
0)
1/
0"!
1!!
#135000
0$
0D
#140000
1$
1D
b1011 >
b1000 4
b1101 9
b10 O
b11 U
0+
1*
1"!
#145000
0$
0D
#150000
1$
1D
b10011 >
b1001 4
b1110 9
b11 O
b100 U
1+
0"!
0!!
1~
0/!
#155000
0$
0D
#160000
1$
1D
b11011 >
b1010 4
b1111 9
b100 O
0N
b100 V
b1 U
0+
0*
1)
0/
1"!
0~
0(!
0'!
1&!
1/!
#165000
0$
0D
#170000
1$
1D
b10000 9
b1 O
b100 P
1N
b10 U
0.
0-
1,
1+
0)
1/
0"!
1!!
#175000
0$
0D
#180000
1$
1D
b1100 >
b1011 4
b10001 9
b10 O
b11 U
0+
1*
1"!
0/!
#185000
0$
0D
#190000
1$
1D
b10100 >
b1100 4
b10010 9
b11 O
0N
b100 U
1+
0/
0"!
0!!
1~
#195000
0$
0D
#200000
1$
1D
b10011 9
b100 O
b101 V
b1 U
0+
0*
1)
1"!
0~
1(!
1/!
#205000
0$
0D
#210000
1$
1D
b10100 9
b1 O
b101 P
1N
b10 U
1.
1+
0)
1/
0"!
1!!
#215000
0$
0D
#220000
1$
1D
b1101 >
b1101 4
b10101 9
b10 O
b11 U
0+
1*
1"!
0/!
#225000
0$
0D
#230000
1$
1D
b10101 >
b1110 4
b10110 9
b11 O
0N
b100 U
1+
0/
0"!
0!!
1~
#235000
0$
0D
#240000
1$
1D
b10111 9
b100 O
b110 V
b1 U
0+
0*
1)
1"!
0~
0(!
1'!
1/!
#245000
0$
0D
#250000
1$
1D
b11000 9
b1 O
b110 P
1N
b10 U
0.
1-
1+
0)
1/
0"!
1!!
0/!
#255000
0$
0D
#260000
1$
1D
b1110 >
b1111 4
b11001 9
b10 O
0N
b11 U
0+
1*
0/
1"!
#265000
0$
0D
#270000
1$
1D
b11010 9
b11 O
b100 U
1+
0"!
0!!
1~
#275000
0$
0D
#280000
1$
1D
b11011 9
b100 O
b111 V
b1 U
0+
0*
1)
1"!
0~
1(!
1/!
#285000
0$
0D
#290000
1$
1D
b11100 9
b1 O
b111 P
1N
b10 U
1.
1+
0)
1/
0"!
1!!
0/!
#295000
0$
0D
#300000
1$
1D
b1111 >
b10000 4
b11101 9
b10 O
0N
b11 U
0+
1*
0/
1"!
#305000
0$
0D
#310000
1$
1D
b11110 9
b11 O
b100 U
1+
0"!
0!!
1~
0R
#315000
0$
0D
#320000
1$
1D
b11111 9
0Q
b100 O
b0 T
0S
0M
0+
0*
1)
00
#325000
0$
0D
b11 3
#330000
1$
1D
b100000 9
b1 U
b1 V
zn
zm
zl
0'!
0&!
1"!
0~
z\
z[
zZ
x+!
x*!
x)!
x.!
x-!
x,!
1/!
#335000
0$
0D
1&
1F
#338000
b1 '
b1 (
1L
0K
0J
1I
0H
0G
#340000
1$
1D
b100001 9
b1 T
1S
bx U
bz V
1n
0m
0l
z(!
z'!
z&!
x"!
x!!
x~
1\
0[
0Z
1+!
0*!
0)!
0.!
0-!
1,!
0/!
#342000
bz '
bz (
zL
zK
zJ
zI
zH
zG
#345000
0$
0D
0&
0F
#348000
b111001 @
b111 '
b1 (
1L
0K
0J
1I
1H
1G
#350000
1$
1D
b100010 9
b10 T
1M
b1 U
b1 V
10
1(!
0'!
0&!
1"!
0!!
0~
1b
1a
1.!
1-!
1/!
1R
#352000
bz '
bz (
zL
zK
zJ
zI
zH
zG
#355000
0$
0D
#358000
b1011 A
b1 '
b11 (
1L
1K
0J
1I
0H
0G
#360000
1$
1D
b100011 9
1Q
b11 T
0x
#362000
bz '
bz (
b110 1
zL
zK
zJ
zI
zH
zG
#365000
0$
0D
#370000
1$
1D
b100100 9
b1 O
b1 P
1N
b10 U
0-
0,
1+
0)
1/
0"!
1!!
#375000
0$
0D
#380000
1$
1D
b1001 >
b10001 4
b100101 9
b10 O
b11 U
0+
1*
1"!
#385000
0$
0D
#390000
1$
1D
b10001 >
b10010 4
b100110 9
b11 O
b100 U
1+
0"!
0!!
1~
#395000
0$
0D
#400000
1$
1D
b11001 >
b10011 4
b100111 9
b100 O
b101 U
0+
0*
1)
1"!
#405000
0$
0D
#410000
1$
1D
b100001 >
b10100 4
b101000 9
b101 O
b110 U
1+
0"!
1!!
#415000
0$
0D
#420000
1$
1D
b101001 >
b10101 4
b101001 9
b110 O
b111 U
0+
1*
1"!
#425000
0$
0D
#430000
1$
1D
b110001 >
b10110 4
b101010 9
b111 O
b10 V
b1 U
1+
0!!
0~
0(!
1'!
#435000
0$
0D
#440000
1$
1D
b111001 >
b10111 4
b101011 9
b1 O
b10 P
b10 U
0.
1-
0*
0)
0"!
1!!
#445000
0$
0D
#450000
1$
1D
b1010 >
b11000 4
b101100 9
b10 O
b11 U
0+
1*
1"!
#455000
0$
0D
#460000
1$
1D
b10010 >
b11001 4
b101101 9
b11 O
b100 U
1+
0"!
0!!
1~
#465000
0$
0D
#470000
1$
1D
b11010 >
b11010 4
b101110 9
b100 O
b101 U
0+
0*
1)
1"!
0/!
#475000
0$
0D
#480000
1$
1D
b100010 >
b11011 4
b101111 9
b101 O
0N
b110 U
1+
0/
0"!
1!!
#485000
0$
0D
#490000
1$
1D
b110000 9
b110 O
b111 U
0+
1*
1"!
#495000
0$
0D
#500000
1$
1D
b110001 9
b111 O
b11 V
b1 U
1+
0!!
0~
1(!
1/!
#505000
0$
0D
#510000
1$
1D
b110010 9
b1 O
b11 P
1N
b10 U
1.
0*
0)
1/
0"!
1!!
0/!
#515000
0$
0D
#520000
1$
1D
b1011 >
b11100 4
b1100001101010000 8
