ic_contest/2007_summer/LCD_CTRL.vcd
$date
	Fri Aug 16 19:17:09 2024
$end
$version
	ModelSim Version 2020.1
$end
$timescale
	10ps
$end

$scope module test $end
$var parameter 32 ! IMAGE_N_PAT $end
$var parameter 32 " CMD_N_PAT $end
$var parameter 32 # OUT_LENGTH $end
$var parameter 32 $ t_reset $end
$var reg 1 % clk $end
$var reg 1 & reset $end
$var reg 8 ' datain [7:0] $end
$var reg 3 ( cmd [2:0] $end
$var reg 1 ) cmd_valid $end
$var wire 1 * dataout [7] $end
$var wire 1 + dataout [6] $end
$var wire 1 , dataout [5] $end
$var wire 1 - dataout [4] $end
$var wire 1 . dataout [3] $end
$var wire 1 / dataout [2] $end
$var wire 1 0 dataout [1] $end
$var wire 1 1 dataout [0] $end
$var wire 1 2 output_valid $end
$var wire 1 3 busy $end
$var reg 8 4 out_temp [7:0] $end
$var reg 1 5 stop $end
$var integer 32 6 i $end
$var integer 32 7 j $end
$var integer 32 8 out_f $end
$var integer 32 9 err $end
$var integer 32 : pattern_num $end
$var reg 1 ; over $end

$scope module top $end
$var parameter 2 < STATE_WAIT $end
$var parameter 2 = STATE_LOAD $end
$var parameter 2 > STATE_SHIFT $end
$var parameter 2 ? STATE_OUTPUT $end
$var wire 1 @ clk $end
$var wire 1 A reset $end
$var wire 1 B datain [7] $end
$var wire 1 C datain [6] $end
$var wire 1 D datain [5] $end
$var wire 1 E datain [4] $end
$var wire 1 F datain [3] $end
$var wire 1 G datain [2] $end
$var wire 1 H datain [1] $end
$var wire 1 I datain [0] $end
$var wire 1 J cmd [2] $end
$var wire 1 K cmd [1] $end
$var wire 1 L cmd [0] $end
$var wire 1 M cmd_valid $end
$var reg 8 N dataout [7:0] $end
$var reg 1 O output_valid $end
$var reg 1 P busy $end
$var reg 2 Q state [1:0] $end
$var reg 2 R next_state [1:0] $end
$var reg 3 S cmd_buffer [2:0] $end
$var reg 6 T load_output_counter [5:0] $end
$var reg 2 U coor_x [1:0] $end
$var reg 2 V coor_y [1:0] $end
$var reg 6 W image_origin [5:0] $end
$var reg 6 X output_index [5:0] $end
$upscope $end
$upscope $end
$enddefinitions $end
#0
$dumpvars
0%
0&
bx '
bx (
0)
bx 4
05
0;
bx N
xO
xP
bx Q
bx R
bx S
bx T
bx U
bx V
bx W
bx X
b100100 !
b11110 "
b100001110 #
b11001000 $
b0 <
b1 =
b10 >
b11 ?
bx 6
bx 7
b10 8
b0 9
b0 :
x1
x0
x/
x.
x-
x,
x+
x*
x2
x3
0M
xL
xK
xJ
xI
xH
xG
xF
xE
xD
xC
xB
0A
0@
$end
#5000
1%
1@
b1100110 4
#10000
0%
0@
1&
1A
b0 Q
b0 T
b10 U
b10 V
0O
0P
02
03
b1110 W
b1110 X
b0 R
#15000
1%
1@
#20000
0%
0@
#25000
1%
1@
#30000
0&
0%
0A
0@
b0 6
b1 (
1)
b0 7
1L
0K
0J
1M
b1 R
#35000
1%
1@
b1 Q
1P
b1 S
13
#40000
0%
0@
b100000 '
bz (
0)
b1 7
0I
0H
0G
0F
0E
1D
0C
0B
zL
zK
zJ
0M
#45000
1%
1@
b1 T
b1111 X
#50000
0%
0@
b1010111 '
b10 7
1I
1H
1G
1E
0D
1C
#55000
1%
1@
b10 T
b10000 X
#60000
0%
0@
b110000 '
b11 7
0I
0H
0G
1D
0C
#65000
1%
1@
b11 T
b10100 X
#70000
0%
0@
b11101011 '
b100 7
1I
1H
1F
0E
1C
1B
#75000
1%
1@
b100 T
b10101 X
#80000
0%
0@
b10101111 '
b101 7
1G
0C
#85000
1%
1@
b101 T
b10110 X
#90000
0%
0@
b11101100 '
b110 7
0I
0H
1C
#95000
1%
1@
b110 T
b11010 X
#100000
0%
0@
b1001001 '
b111 7
1I
0G
0D
0B
#105000
1%
1@
b111 T
b11011 X
#110000
0%
0@
b10010011 '
b1000 7
1H
0F
1E
0C
1B
#115000
1%
1@
b1000 T
b11100 X
#120000
0%
0@
b100010 '
b1001 7
0I
0E
1D
0B
#125000
1%
1@
b1001 T
#130000
0%
0@
b1100111 '
b1010 7
1I
1G
1C
#135000
1%
1@
b1010 T
#140000
0%
0@
b10100000 '
b1011 7
0I
0H
0G
0C
1B
#145000
1%
1@
b1011 T
#150000
0%
0@
b101 '
b1100 7
1I
1G
0D
0B
#155000
1%
1@
b1100 T
#160000
0%
0@
b1000100 '
b1101 7
0I
1C
#165000
1%
1@
b1101 T
#170000
0%
0@
b1100010 '
b1110 7
1H
0G
1D
#175000
1%
1@
b1110 T
#180000
0%
0@
b1100110 '
b1111 7
1G
#185000
1%
1@
b1111 T
#190000
0%
0@
b11001100 '
b10000 7
0H
1F
0D
1B
#195000
1%
1@
b10000 T
#200000
0%
0@
b1110110 '
b10001 7
1H
0F
1E
1D
0B
#205000
1%
1@
b10001 T
#210000
0%
0@
b10010111 '
b10010 7
1I
0D
0C
1B
#215000
1%
1@
b10010 T
#220000
0%
0@
b101000 '
b10011 7
0I
0H
0G
1F
0E
1D
0B
#225000
1%
1@
b10011 T
#230000
0%
0@
b1001 '
b10100 7
1I
0D
#235000
1%
1@
b10100 T
#240000
0%
0@
b11111111 '
b10101 7
1H
1G
1E
1D
1C
1B
#245000
1%
1@
b10101 T
#250000
0%
0@
b1000000 '
b10110 7
0I
0H
0G
0F
0E
0D
0B
#255000
1%
1@
b10110 T
#260000
0%
0@
b11000 '
b10111 7
1F
1E
0C
#265000
1%
1@
b10111 T
#270000
0%
0@
b10000000 '
b11000 7
0F
0E
1B
#275000
1%
1@
b11000 T
#280000
0%
0@
b11110000 '
b11001 7
1E
1D
1C
#285000
1%
1@
b11001 T
#290000
0%
0@
b11101001 '
b11010 7
1I
1F
0E
#295000
1%
1@
b11010 T
#300000
0%
0@
b11101010 '
b11011 7
0I
1H
#305000
1%
1@
b11011 T
#310000
0%
0@
b10000111 '
b11100 7
1I
1G
0F
0D
0C
#315000
1%
1@
b11100 T
#320000
0%
0@
b11011101 '
b11101 7
0H
1F
1E
1C
#325000
1%
1@
b11101 T
#330000
0%
0@
b11101101 '
b11110 7
0E
1D
#335000
1%
1@
b11110 T
#340000
0%
0@
b11010100 '
b11111 7
0I
0F
1E
0D
#345000
1%
1@
b11111 T
#350000
0%
0@
b11010011 '
b100000 7
1I
1H
0G
#355000
1%
1@
b100000 T
#360000
0%
0@
b10111011 '
b100001 7
1F
1D
0C
#365000
1%
1@
b100001 T
#370000
0%
0@
b11110100 '
b100010 7
0I
0H
1G
0F
1C
#375000
1%
1@
b100010 T
#380000
0%
0@
b1110111 '
b100011 7
1I
1H
0B
#385000
1%
1@
b100011 T
b11 R
#390000
0%
0@
b1010010 '
b100100 7
0I
0G
0D
#395000
1%
1@
b11 Q
b0 T
b1110 X
#400000
0%
0@
bx '
b100101 7
b1 6
bz '
zI
zH
zG
zF
zE
zD
zC
zB
#405000
1%
1@
b1100110 N
1O
b1 T
01
10
1/
0.
0-
1,
1+
0*
12
b1111 X
#410000
0%
0@
#415000
1%
1@
b1 :
b11001100 N
b10 T
00
1.
0,
1*
b10000 X
#420000
0%
0@
#425000
1%
1@
b11001100 4
b10 :
b1110110 N
b11 T
10
0.
1-
1,
0*
b10100 X
#430000
0%
0@
#435000
1%
1@
b1110110 4
b11 :
b11111111 N
b100 T
11
1.
1*
b10101 X
#440000
0%
0@
#445000
1%
1@
b11111111 4
b100 :
b1000000 N
b101 T
01
00
0/
0.
0-
0,
0*
b10110 X
#450000
0%
0@
#455000
1%
1@
b1000000 4
b101 :
b11000 N
b110 T
1.
1-
0+
b11010 X
#460000
0%
0@
#465000
1%
1@
b11000 4
b110 :
b11101010 N
b111 T
10
0-
1,
1+
1*
b11011 X
#470000
0%
0@
#475000
1%
1@
b11101010 4
b111 :
b10000111 N
b1000 T
11
1/
0.
0,
0+
b11100 X
b0 R
#480000
0%
0@
#485000
1%
1@
b10000111 4
b1000 :
b0 Q
b11011101 N
b0 T
0P
00
1.
1-
1+
03
b1110 X
#490000
0%
0@
b1 (
1)
b0 7
1L
0K
0J
1M
b1 R
#495000
1%
1@
b11011101 4
b1001 :
b1 Q
0O
1P
02
13
#500000
0%
0@
b100000 '
bz (
0)
b1 7
0I
0H
0G
0F
0E
1D
0C
0B
zL
zK
zJ
0M
#505000
1%
1@
b1100110 4
b1 T
b1111 X
#510000
0%
0@
b1010111 '
b10 7
1I
1H
1G
1E
0D
1C
#515000
1%
1@
b10 T
b10000 X
#520000
0%
0@
b110000 '
b11 7
0I
0H
0G
1D
0C
#525000
1%
1@
b11 T
b10100 X
#530000
0%
0@
b11101011 '
b100 7
1I
1H
1F
0E
1C
1B
#535000
1%
1@
b100 T
b10101 X
#540000
0%
0@
b10101111 '
b101 7
1G
0C
#545000
1%
1@
b101 T
b10110 X
#550000
0%
0@
b11101100 '
b110 7
0I
0H
1C
#555000
1%
1@
b110 T
b11010 X
#560000
0%
0@
b1001001 '
b111 7
1I
0G
0D
0B
#565000
1%
1@
b111 T
b11011 X
#570000
0%
0@
b10010011 '
b1000 7
1H
0F
1E
0C
1B
#575000
1%
1@
b1000 T
b11100 X
#580000
0%
0@
b100010 '
b1001 7
0I
0E
1D
0B
#585000
1%
1@
b1001 T
#590000
0%
0@
b1100111 '
b1010 7
1I
1G
1C
#595000
1%
1@
b1010 T
#600000
0%
0@
b10100000 '
b1011 7
0I
0H
0G
0C
1B
#605000
1%
1@
b1011 T
#610000
0%
0@
b101 '
b1100 7
1I
1G
0D
0B
#615000
1%
1@
b1100 T
#620000
0%
0@
b1000100 '
b1101 7
0I
1C
#625000
1%
1@
b1101 T
#630000
0%
0@
b1100010 '
b1110 7
1H
0G
1D
#635000
1%
1@
b1110 T
#640000
0%
0@
b1100110 '
b1111 7
1G
#645000
1%
1@
b1111 T
#650000
0%
0@
b11001100 '
b10000 7
0H
1F
0D
1B
#655000
1%
1@
b10000 T
#660000
0%
0@
b1110110 '
b10001 7
1H
0F
1E
1D
0B
#665000
1%
1@
b10001 T
#670000
0%
0@
b10010111 '
b10010 7
1I
0D
0C
1B
#675000
1%
1@
b10010 T
#680000
0%
0@
b101000 '
b10011 7
0I
0H
0G
1F
0E
1D
0B
#685000
1%
1@
b10011 T
#690000
0%
0@
b1001 '
b10100 7
1I
0D
#695000
1%
1@
b10100 T
#700000
0%
0@
b11111111 '
b10101 7
1H
1G
1E
1D
1C
1B
#705000
1%
1@
b10101 T
#710000
0%
0@
b1000000 '
b10110 7
0I
0H
0G
0F
0E
0D
0B
#715000
1%
1@
b10110 T
#720000
0%
0@
b11000 '
b10111 7
1F
1E
0C
#725000
1%
1@
b10111 T
#730000
0%
0@
b10000000 '
b11000 7
0F
0E
1B
#735000
1%
1@
b11000 T
#740000
0%
0@
b11110000 '
b11001 7
1E
1D
1C
#745000
1%
1@
b11001 T
#750000
0%
0@
b11101001 '
b11010 7
1I
1F
0E
#755000
1%
1@
b11010 T
#760000
0%
0@
b11101010 '
b11011 7
0I
1H
#765000
1%
1@
b11011 T
#770000
0%
0@
b10000111 '
b11100 7
1I
1G
0F
0D
0C
#775000
1%
1@
b11100 T
#780000
0%
0@
b11011101 '
b11101 7
0H
1F
1E
1C
#785000
1%
1@
b11101 T
#790000
0%
0@
b11101101 '
b11110 7
0E
1D
#795000
1%
1@
b11110 T
#800000
0%
0@
b11010100 '
b11111 7
0I
0F
1E
0D
#805000
1%
1@
b11111 T
#810000
0%
0@
b11010011 '
b100000 7
1I
1H
0G
#815000
1%
1@
b100000 T
#820000
0%
0@
b10111011 '
b100001 7
1F
1D
0C
#825000
1%
1@
b100001 T
#830000
0%
0@
b11110100 '
b100010 7
0I
0H
1G
0F
1C
#835000
1%
1@
b100010 T
#840000
0%
0@
b1110111 '
b100011 7
1I
1H
0B
#845000
1%
1@
b100011 T
b11 R
#850000
0%
0@
b1010010 '
b100100 7
0I
0G
0D
#855000
1%
1@
b11 Q
b0 T
b1110 X
#860000
0%
0@
bx '
b100101 7
b10 6
bz '
zI
zH
zG
zF
zE
zD
zC
zB
#865000
1%
1@
b1100110 N
1O
b1 T
01
10
0.
0-
1,
0*
12
b1111 X
#870000
0%
0@
#875000
1%
1@
b1010 :
b11001100 N
b10 T
00
1.
0,
1*
b10000 X
#880000
0%
0@
#885000
1%
1@
b11001100 4
b1011 :
b1110110 N
b11 T
10
0.
1-
1,
0*
b10100 X
#890000
0%
0@
#895000
1%
1@
b1110110 4
b1100 :
b11111111 N
b100 T
11
1.
1*
b10101 X
#900000
0%
0@
#905000
1%
1@
b11111111 4
b1101 :
b1000000 N
b101 T
01
00
0/
0.
0-
0,
0*
b10110 X
#910000
0%
0@
#915000
1%
1@
b1000000 4
b1110 :
b11000 N
b110 T
1.
1-
0+
b11010 X
#920000
0%
0@
#925000
1%
1@
b11000 4
b1111 :
b11101010 N
b111 T
10
0-
1,
1+
1*
b11011 X
#930000
0%
0@
#935000
1%
1@
b11101010 4
b10000 :
b10000111 N
b1000 T
11
1/
0.
0,
0+
b11100 X
b0 R
#940000
0%
0@
#945000
1%
1@
b10000111 4
b10001 :
b0 Q
b11011101 N
b0 T
0P
00
1.
1-
1+
03
b1110 X
#950000
0%
0@
b10 (
1)
0L
1K
0J
1M
b10 R
#955000
1%
1@
b11011101 4
b10010 :
b10 Q
0O
1P
b10 S
02
13
b11 R
#960000
0%
0@
0)
b11 6
bz (
0M
zL
zK
zJ
#965000
1%
1@
b11001100 4
b11 Q
b11 U
b1111 W
b1111 X
#970000
0%
0@
#975000
1%
1@
b11001100 N
1O
b1 T
01
0-
12
b10000 X
#980000
0%
0@
#985000
1%
1@
b10011 :
b1110110 N
b10 T
10
0.
1-
1,
0*
b10001 X
#990000
0%
0@
#995000
1%
1@
b1110110 4
b10100 :
b10010111 N
b11 T
11
0,
0+
1*
b10101 X
#1000000
0%
0@
#1005000
1%
1@
b10010111 4
b10101 :
b1000000 N
b100 T
01
00
0/
0-
1+
0*
b10110 X
#1010000
0%
0@
#1015000
1%
1@
b1000000 4
b10110 :
b11000 N
b101 T
1.
1-
0+
b10111 X
#1020000
0%
0@
#1025000
1%
1@
b11000 4
b10111 :
b10000000 N
b110 T
0.
0-
1*
b11011 X
#1030000
0%
0@
#1035000
1%
1@
b10000000 4
b11000 :
b10000111 N
b111 T
11
10
1/
b11100 X
#1040000
0%
0@
#1045000
1%
1@
b10000111 4
b11001 :
b11011101 N
b1000 T
00
1.
1-
1+
b11101 X
b0 R
#1050000
0%
0@
#1055000
1%
1@
b11011101 4
b11010 :
b0 Q
b11101101 N
b0 T
0P
0-
1,
03
b1111 X
#1060000
0%
0@
b10 (
1)
0L
1K
0J
1M
b10 R
#1065000
1%
1@
b11101101 4
b11011 :
b10 Q
0O
1P
02
13
b11 R
#1070000
0%
0@
0)
b100 6
bz (
0M
zL
zK
zJ
#1075000
1%
1@
b11001100 4
b11 Q
#1080000
0%
0@
#1085000
1%
1@
b11001100 N
1O
b1 T
01
0,
12
b10000 X
#1090000
0%
0@
#1095000
1%
1@
b11100 :
b1110110 N
b10 T
10
0.
1-
1,
0*
b10001 X
#1100000
0%
0@
#1105000
1%
1@
b1110110 4
b11101 :
b10010111 N
b11 T
11
0,
0+
1*
b10101 X
#1110000
0%
0@
#1115000
1%
1@
b10010111 4
b11110 :
b1000000 N
b100 T
01
00
0/
0-
1+
0*
b10110 X
#1120000
0%
0@
#1125000
1%
1@
b1000000 4
b11111 :
b11000 N
b101 T
1.
1-
0+
b10111 X
#1130000
0%
0@
#1135000
1%
1@
b11000 4
b100000 :
b10000000 N
b110 T
0.
0-
1*
b11011 X
#1140000
0%
0@
#1145000
1%
1@
b10000000 4
b100001 :
b10000111 N
b111 T
11
10
1/
b11100 X
#1150000
0%
0@
#1155000
1%
1@
b10000111 4
b100010 :
b11011101 N
b1000 T
00
1.
1-
1+
b11101 X
b0 R
#1160000
0%
0@
#1165000
1%
1@
b11011101 4
b100011 :
b0 Q
b11101101 N
b0 T
0P
0-
1,
03
b1111 X
#1170000
0%
0@
b101 (
1)
1L
0K
1J
1M
b10 R
#1175000
1%
1@
b11101101 4
b100100 :
b10 Q
0O
1P
b101 S
02
13
b11 R
#1180000
0%
0@
0)
b101 6
bz (
0M
zL
zK
zJ
#1185000
1%
1@
b1000000 4
b11 Q
b11 V
b10101 W
b10101 X
#1190000
0%
0@
#1195000
1%
1@
b1000000 N
1O
b1 T
01
0/
0.
0,
0*
12
b10110 X
#1200000
0%
0@
#1205000
1%
1@
b100101 :
b11000 N
b10 T
1.
1-
0+
b10111 X
#1210000
0%
0@
#1215000
1%
1@
b11000 4
b100110 :
b10000000 N
b11 T
0.
0-
1*
b11011 X
#1220000
0%
0@
#1225000
1%
1@
b10000000 4
b100111 :
b10000111 N
b100 T
11
10
1/
b11100 X
#1230000
0%
0@
#1235000
1%
1@
b10000111 4
b101000 :
b11011101 N
b101 T
00
1.
1-
1+
b11101 X
#1240000
0%
0@
#1245000
1%
1@
b11011101 4
b101001 :
b11101101 N
b110 T
0-
1,
b100001 X
#1250000
0%
0@
#1255000
1%
1@
b11101101 4
b101010 :
b11110100 N
b111 T
01
0.
1-
b100010 X
#1260000
0%
0@
#1265000
1%
1@
b11110100 4
b101011 :
b1110111 N
b1000 T
11
10
0*
b100011 X
b0 R
#1270000
0%
0@
#1275000
1%
1@
b1110111 4
b101100 :
b0 Q
b1010010 N
b0 T
0P
01
0/
0,
03
b10101 X
#1280000
0%
0@
b101 (
1)
1L
0K
1J
1M
b10 R
#1285000
1%
1@
b1010010 4
b101101 :
b10 Q
0O
1P
02
13
b11 R
#1290000
0%
0@
0)
b110 6
bz (
0M
zL
zK
zJ
#1295000
1%
1@
b1000000 4
b11 Q
#1300000
0%
0@
#1305000
1%
1@
b1000000 N
1O
b1 T
00
0-
12
b10110 X
#1310000
0%
0@
#1315000
1%
1@
b101110 :
b11000 N
b10 T
1.
1-
0+
b10111 X
#1320000
0%
0@
#1325000
1%
1@
b11000 4
b101111 :
b10000000 N
b11 T
0.
0-
1*
b11011 X
#1330000
0%
0@
#1335000
1%
1@
b10000000 4
b110000 :
b10000111 N
b100 T
11
10
1/
b11100 X
#1340000
0%
0@
#1345000
1%
1@
b10000111 4
b110001 :
b11011101 N
b101 T
00
1.
1-
1+
b11101 X
#1350000
0%
0@
#1355000
1%
1@
b11011101 4
b110010 :
b11101101 N
b110 T
0-
1,
b100001 X
#1360000
0%
0@
#1365000
1%
1@
b11101101 4
b110011 :
b11110100 N
b111 T
01
0.
1-
b100010 X
#1370000
0%
0@
#1375000
1%
1@
b11110100 4
b110100 :
b1110111 N
b1000 T
11
10
0*
b100011 X
b0 R
#1380000
0%
0@
#1385000
1%
1@
b1110111 4
b110101 :
b0 Q
b1010010 N
b0 T
0P
01
0/
0,
03
b10101 X
#1390000
0%
0@
b11 (
1)
1L
1K
0J
1M
b10 R
#1395000
1%
1@
b1010010 4
b110110 :
b10 Q
0O
1P
b11 S
02
13
b11 R
#1400000
0%
0@
0)
b111 6
bz (
0M
zL
zK
zJ
#1405000
1%
1@
b11111111 4
b11 Q
b10 U
b10100 W
b10100 X
#1410000
0%
0@
#1415000
1%
1@
b11111111 N
1O
b1 T
11
1/
1.
1,
1*
12
b10101 X
#1420000
0%
0@
#1425000
1%
1@
b110111 :
b1000000 N
b10 T
01
00
0/
0.
0-
0,
0*
b10110 X
#1430000
0%
0@
#1435000
1%
1@
b1000000 4
b111000 :
b11000 N
b11 T
1.
1-
0+
b11010 X
#1440000
0%
0@
#1445000
1%
1@
b11000 4
b111001 :
b11101010 N
b100 T
10
0-
1,
1+
1*
b11011 X
#1450000
0%
0@
#1455000
1%
1@
b11101010 4
b111010 :
b10000111 N
b101 T
11
1/
0.
0,
0+
b11100 X
#1460000
0%
0@
#1465000
1%
1@
b10000111 4
b111011 :
b11011101 N
b110 T
00
1.
1-
1+
b100000 X
#1470000
0%
0@
#1475000
1%
1@
b11011101 4
b111100 :
b10111011 N
b111 T
10
0/
1,
0+
b100001 X
#1480000
0%
0@
#1485000
1%
1@
b10111011 4
b111101 :
b11110100 N
b1000 T
01
00
1/
0.
1+
b100010 X
b0 R
#1490000
0%
0@
#1495000
1%
1@
b11110100 4
b111110 :
b0 Q
b1110111 N
b0 T
0P
11
10
0*
03
b10100 X
#1500000
0%
0@
b101 (
1)
1L
0K
1J
1M
b10 R
#1505000
1%
1@
b1110111 4
b111111 :
b10 Q
0O
1P
b101 S
02
13
b11 R
#1510000
0%
0@
0)
b1000 6
bz (
0M
zL
zK
zJ
#1515000
1%
1@
b11111111 4
b11 Q
#1520000
0%
0@
#1525000
1%
1@
b11111111 N
1O
b1 T
1.
1*
12
b10101 X
#1530000
0%
0@
#1535000
1%
1@
b1000000 :
b1000000 N
b10 T
01
00
0/
0.
0-
0,
0*
b10110 X
#1540000
0%
0@
#1545000
1%
1@
b1000000 4
b1000001 :
b11000 N
b11 T
1.
1-
0+
b11010 X
#1550000
0%
0@
#1555000
1%
1@
b11000 4
b1000010 :
b11101010 N
b100 T
10
0-
1,
1+
1*
b11011 X
#1560000
0%
0@
#1565000
1%
1@
b11101010 4
b1000011 :
b10000111 N
b101 T
11
1/
0.
0,
0+
b11100 X
#1570000
0%
0@
#1575000
1%
1@
b10000111 4
b1000100 :
b11011101 N
b110 T
00
1.
1-
1+
b100000 X
#1580000
0%
0@
#1585000
1%
1@
b11011101 4
b1000101 :
b10111011 N
b111 T
10
0/
1,
0+
b100001 X
#1590000
0%
0@
#1595000
1%
1@
b10111011 4
b1000110 :
b11110100 N
b1000 T
01
00
1/
0.
1+
b100010 X
b0 R
#1600000
0%
0@
#1605000
1%
1@
b11110100 4
b1000111 :
b0 Q
b1110111 N
b0 T
0P
11
10
0*
03
b10100 X
#1610000
0%
0@
b11 (
1)
1L
1K
0J
1M
b10 R
#1615000
1%
1@
b1110111 4
b1001000 :
b10 Q
0O
1P
b11 S
02
13
b11 R
#1620000
0%
0@
0)
b1001 6
bz (
0M
zL
zK
zJ
#1625000
1%
1@
b1001 4
b11 Q
b1 U
b10011 W
b10011 X
#1630000
0%
0@
#1635000
1%
1@
b1001 N
1O
b1 T
00
0/
1.
0-
0,
0+
12
b10100 X
#1640000
0%
0@
#1645000
1%
1@
b1001001 :
b11111111 N
b10 T
10
1/
1-
1,
1+
1*
b10101 X
#1650000
0%
0@
#1655000
1%
1@
b11111111 4
b1001010 :
b1000000 N
b11 T
01
00
0/
0.
0-
0,
0*
b11001 X
#1660000
0%
0@
#1665000
1%
1@
b1000000 4
b1001011 :
b11101001 N
b100 T
11
1.
1,
1*
b11010 X
#1670000
0%
0@
#1675000
1%
1@
b11101001 4
b1001100 :
b11101010 N
b101 T
01
10
b11011 X
#1680000
0%
0@
#1685000
1%
1@
b11101010 4
b1001101 :
b10000111 N
b110 T
11
1/
0.
0,
0+
b11111 X
#1690000
0%
0@
#1695000
1%
1@
b10000111 4
b1001110 :
b11010011 N
b111 T
0/
1-
1+
b100000 X
#1700000
0%
0@
#1705000
1%
1@
b11010011 4
b1001111 :
b10111011 N
b1000 T
1.
1,
0+
b100001 X
b0 R
#1710000
0%
0@
#1715000
1%
1@
b10111011 4
b1010000 :
b0 Q
b11110100 N
b0 T
0P
01
00
1/
0.
1+
03
b10011 X
#1720000
0%
0@
b11 (
1)
1L
1K
0J
1M
b10 R
#1725000
1%
1@
b11110100 4
b1010001 :
b10 Q
0O
1P
02
13
b11 R
#1730000
0%
0@
0)
b1010 6
bz (
0M
zL
zK
zJ
#1735000
1%
1@
b101000 4
b11 Q
b0 U
b10010 W
b10010 X
#1740000
0%
0@
#1745000
1%
1@
b101000 N
1O
b1 T
0/
1.
0-
0+
0*
12
b10011 X
#1750000
0%
0@
#1755000
1%
1@
b1010010 :
b1001 N
b10 T
11
0,
b10100 X
#1760000
0%
0@
#1765000
1%
1@
b1001 4
b1010011 :
b11111111 N
b11 T
10
1/
1-
1,
1+
1*
b11000 X
#1770000
0%
0@
#1775000
1%
1@
b11111111 4
b1010100 :
b11110000 N
b100 T
01
00
0/
0.
b11001 X
#1780000
0%
0@
#1785000
1%
1@
b11110000 4
b1010101 :
b11101001 N
b101 T
11
1.
0-
b11010 X
#1790000
0%
0@
#1795000
1%
1@
b11101001 4
b1010110 :
b11101010 N
b110 T
01
10
b11110 X
#1800000
0%
0@
#1805000
1%
1@
b11101010 4
b1010111 :
b11010100 N
b111 T
00
1/
0.
1-
0,
b11111 X
#1810000
0%
0@
#1815000
1%
1@
b11010100 4
b1011000 :
b11010011 N
b1000 T
11
10
0/
b100000 X
b0 R
#1820000
0%
0@
#1825000
1%
1@
b11010011 4
b1011001 :
b0 Q
b10111011 N
b0 T
0P
1.
1,
0+
03
b10010 X
#1830000
0%
0@
b100 (
1)
0L
0K
1J
1M
b10 R
#1835000
1%
1@
b10111011 4
b1011010 :
b10 Q
0O
1P
b100 S
02
13
b11 R
#1840000
0%
0@
0)
b1011 6
bz (
0M
zL
zK
zJ
#1845000
1%
1@
b1000100 4
b11 Q
b10 V
b1100 W
b1100 X
#1850000
0%
0@
#1855000
1%
1@
b1000100 N
1O
b1 T
01
00
1/
0.
0-
0,
1+
0*
12
b1101 X
#1860000
0%
0@
#1865000
1%
1@
b1011011 :
b1100010 N
b10 T
10
0/
1,
b1110 X
#1870000
0%
0@
#1875000
1%
1@
b1100010 4
b1011100 :
b1100110 N
b11 T
1/
b10010 X
#1880000
0%
0@
#1885000
1%
1@
b1100110 4
b1011101 :
b101000 N
b100 T
00
0/
1.
0+
b10011 X
#1890000
0%
0@
#1895000
1%
1@
b101000 4
b1011110 :
b1001 N
b101 T
11
0,
b10100 X
#1900000
0%
0@
#1905000
1%
1@
b1001 4
b1011111 :
b11111111 N
b110 T
10
1/
1-
1,
1+
1*
b11000 X
#1910000
0%
0@
#1915000
1%
1@
b11111111 4
b1100000 :
b11110000 N
b111 T
01
00
0/
0.
b11001 X
#1920000
0%
0@
#1925000
1%
1@
b11110000 4
b1100001 :
b11101001 N
b1000 T
11
1.
0-
b11010 X
b0 R
#1930000
0%
0@
#1935000
1%
1@
b11101001 4
b1100010 :
b0 Q
b11101010 N
b0 T
0P
01
10
03
b1100 X
#1940000
0%
0@
b100 (
1)
0L
0K
1J
1M
b10 R
#1945000
1%
1@
b11101010 4
b1100011 :
b10 Q
0O
1P
02
13
b11 R
#1950000
0%
0@
0)
b1100 6
bz (
0M
zL
zK
zJ
#1955000
1%
1@
b1001001 4
b11 Q
b1 V
b110 W
b110 X
#1960000
0%
0@
#1965000
1%
1@
b1001001 N
1O
b1 T
11
00
0,
0*
12
b111 X
#1970000
0%
0@
#1975000
1%
1@
b1100100 :
b10010011 N
b10 T
10
0.
1-
0+
1*
b1000 X
#1980000
0%
0@
#1985000
1%
1@
b10010011 4
b1100101 :
b100010 N
b11 T
01
0-
1,
0*
b1100 X
#1990000
0%
0@
#1995000
1%
1@
b100010 4
b1100110 :
b1000100 N
b100 T
00
1/
0,
1+
b1101 X
#2000000
0%
0@
#2005000
1%
1@
b1000100 4
b1100111 :
b1100010 N
b101 T
10
0/
1,
b1110 X
#2010000
0%
0@
#2015000
1%
1@
b1100010 4
b1101000 :
b1100110 N
b110 T
1/
b10010 X
#2020000
0%
0@
#2025000
1%
1@
b1100110 4
b1101001 :
b101000 N
b111 T
00
0/
1.
0+
b10011 X
#2030000
0%
0@
#2035000
1%
1@
b101000 4
b1101010 :
b1001 N
b1000 T
11
0,
b10100 X
b0 R
#2040000
0%
0@
#2045000
1%
1@
b1001 4
b1101011 :
b0 Q
b11111111 N
b0 T
0P
10
1/
1-
1,
1+
1*
03
b110 X
#2050000
0%
0@
b11 (
1)
1L
1K
0J
1M
b10 R
#2055000
1%
1@
b11111111 4
b1101100 :
b10 Q
0O
1P
b11 S
02
13
b11 R
#2060000
0%
0@
0)
b1101 6
bz (
0M
zL
zK
zJ
#2065000
1%
1@
b1001001 4
b11 Q
#2070000
0%
0@
#2075000
1%
1@
b1001001 N
1O
b1 T
00
0/
0-
0,
0*
12
b111 X
#2080000
0%
0@
#2085000
1%
1@
b1101101 :
b10010011 N
b10 T
10
0.
1-
0+
1*
b1000 X
#2090000
0%
0@
#2095000
1%
1@
b10010011 4
b1101110 :
b100010 N
b11 T
01
0-
1,
0*
b1100 X
#2100000
0%
0@
#2105000
1%
1@
b100010 4
b1101111 :
b1000100 N
b100 T
00
1/
0,
1+
b1101 X
#2110000
0%
0@
#2115000
1%
1@
b1000100 4
b1110000 :
b1100010 N
b101 T
10
0/
1,
b1110 X
#2120000
0%
0@
#2125000
1%
1@
b1100010 4
b1110001 :
b1100110 N
b110 T
1/
b10010 X
#2130000
0%
0@
#2135000
1%
1@
b1100110 4
b1110010 :
b101000 N
b111 T
00
0/
1.
0+
b10011 X
#2140000
0%
0@
#2145000
1%
1@
b101000 4
b1110011 :
b1001 N
b1000 T
11
0,
b10100 X
b0 R
#2150000
0%
0@
#2155000
1%
1@
b1001 4
b1110100 :
b0 Q
b11111111 N
b0 T
0P
10
1/
1-
1,
1+
1*
03
b110 X
#2160000
0%
0@
b100 (
1)
0L
0K
1J
1M
b10 R
#2165000
1%
1@
b11111111 4
b1110101 :
b10 Q
0O
1P
b100 S
02
13
b11 R
#2170000
0%
0@
0)
b1110 6
bz (
0M
zL
zK
zJ
#2175000
1%
1@
b100000 4
b11 Q
b0 V
b0 W
b0 X
#2180000
0%
0@
#2185000
1%
1@
b100000 N
1O
b1 T
01
00
0/
0.
0-
0+
0*
12
b1 X
#2190000
0%
0@
#2195000
1%
1@
b1110110 :
b1010111 N
b10 T
11
10
1/
1-
0,
1+
b10 X
#2200000
0%
0@
#2205000
1%
1@
b1010111 4
b1110111 :
b110000 N
b11 T
01
00
0/
1,
0+
b110 X
#2210000
0%
0@
